…
time_on_prod_page

## # A tibble: 311 x 4
##    productrelated p_duration bouncerates exitrates
##             <dbl>      <dbl>       <dbl>     <dbl>
##  1              0         0         3.33      4.38
##  2              1     10330.      107.      114.  
##  3              2     29092.       22.0      48.0 
##  4              3     53882.       15.5      35.5 
##  5              4     65578.       11.2      25.8 
##  6              5     71559.        9.63     21.8 
##  7              6     96837.        7.57     19.0 
##  8              7    119062.        7.28     17.7 
##  9              8    115396.        6.14     15.7 
## 10              9    118569.        5.25     13.1 
## # ... with 301 more rows
…
